<svg xmlns="http://www.w3.org/2000/svg" width="18" height="18" viewBox="0 0 18 18">
  <metadata><?xpacket begin="﻿" id="W5M0MpCehiHzreSzNTczkc9d"?>
<x:xmpmeta xmlns:x="adobe:ns:meta/" x:xmptk="Adobe XMP Core 5.6-c138 79.159824, 2016/09/14-01:09:01        ">
   <rdf:RDF xmlns:rdf="http://www.w3.org/1999/02/22-rdf-syntax-ns#">
      <rdf:Description rdf:about=""/>
   </rdf:RDF>
</x:xmpmeta>
                                                                                                    
                                                                                                    
                                                                                                    
                                                                                                    
                                                                                                    
                                                                                                    
                                                                                                    
                                                                                                    
                                                                                                    
                                                                                                    
                                                                                                    
                                                                                                    
                                                                                                    
                                                                                                    
                                                                                                    
                                                                                                    
                                                                                                    
                                                                                                    
                                                                                                    
                                                                                                    
                           
<?xpacket end="w"?></metadata>
<defs>
    <style>
      .cls-1 {
        fill: #b8c2cc;
        fill-rule: evenodd;
      }
    </style>
  </defs>
  <path id="Rounded_Rectangle_4_copy" data-name="Rounded Rectangle 4 copy" class="cls-1" d="M160,295H148a3,3,0,0,1-3-3V282a3,3,0,0,1,3-3h12a3,3,0,0,1,3,3v10A3,3,0,0,1,160,295Zm2-13a2,2,0,0,0-2-2H148a2,2,0,0,0-2,2v10a2,2,0,0,0,2,2h12a2,2,0,0,0,2-2V282Zm-7.64,5.853a0.555,0.555,0,0,1-.748,0l-5.481-2.966a0.565,0.565,0,0,1,0-.742,0.439,0.439,0,0,1,.667,0l5.188,2.773,5.188-2.773a0.439,0.439,0,0,1,.667,0,0.568,0.568,0,0,1,0,.742Z" transform="translate(-145 -278)"/>
</svg>
