<svg xmlns="http://www.w3.org/2000/svg" width="16.03" height="16" viewBox="0 0 16.03 16">
  <metadata><?xpacket begin="﻿" id="W5M0MpCehiHzreSzNTczkc9d"?>
<x:xmpmeta xmlns:x="adobe:ns:meta/" x:xmptk="Adobe XMP Core 5.6-c138 79.159824, 2016/09/14-01:09:01        ">
   <rdf:RDF xmlns:rdf="http://www.w3.org/1999/02/22-rdf-syntax-ns#">
      <rdf:Description rdf:about=""/>
   </rdf:RDF>
</x:xmpmeta>
                                                                                                    
                                                                                                    
                                                                                                    
                                                                                                    
                                                                                                    
                                                                                                    
                                                                                                    
                                                                                                    
                                                                                                    
                                                                                                    
                                                                                                    
                                                                                                    
                                                                                                    
                                                                                                    
                                                                                                    
                                                                                                    
                                                                                                    
                                                                                                    
                                                                                                    
                                                                                                    
                           
<?xpacket end="w"?></metadata>
<defs>
    <style>
      .cls-1 {
        fill: #8a9199;
        fill-rule: evenodd;
      }
    </style>
  </defs>
  <path id="Forma_1_copy_5" data-name="Forma 1 copy 5" class="cls-1" d="M1148.06,417.921a0.143,0.143,0,0,0,.04-0.013l2.4-.964a0.582,0.582,0,0,0,.3-0.3l0.61-1.416,1.4-.617a0.539,0.539,0,0,0,.29-0.294l0.61-1.416,1.41-.617a0.577,0.577,0,0,0,.29-0.294l0.44-1.029a4.523,4.523,0,0,0,4.81-1.078,4.67,4.67,0,0,0,0-6.538,4.547,4.547,0,0,0-6.47,0,4.639,4.639,0,0,0-.98,5.06l-6.76,6.835a1.626,1.626,0,0,0-.01,2.284A1.583,1.583,0,0,0,1148.06,417.921Zm-0.82-1.876,7.04-7.119a0.574,0.574,0,0,0,.1-0.668,3.5,3.5,0,0,1,.61-4.108,3.428,3.428,0,0,1,4.88,0,3.52,3.52,0,0,1-.01,4.933,3.406,3.406,0,0,1-4.04.628,0.548,0.548,0,0,0-.77.277l-0.58,1.347-1.4.616a0.562,0.562,0,0,0-.3.3l-0.61,1.416-1.4.617a0.577,0.577,0,0,0-.29.294l-0.6,1.407-2.16.87A0.48,0.48,0,0,1,1147.24,416.045Zm12.17-8.644a1.992,1.992,0,1,0-2.81,0A2,2,0,0,0,1159.41,407.4Zm-2.12-2.133a0.973,0.973,0,0,1,1.4,0,1.031,1.031,0,0,1,0,1.439,0.973,0.973,0,0,1-1.4,0A1.041,1.041,0,0,1,1157.29,405.268Z" transform="translate(-1145.97 -402)"/>
</svg>
